<X3D profile="Immersive" version='3.0'>
	<Scene>
		<IMPORT inlineDEF='H3D_EXPORTS' exportedDEF='HDEV' AS='HDEV' />
		
		<!-- <Inline DEF="CoordinateAxes" url="coordinate_axes.x3d"/> -->
		<!-- <Inline DEF="Walls" url="2d_walls.x3d"/> -->
		<DirectionalLight direction=".1 -1 1"/>
		
		<Viewpoint DEF="VP" orientation='1 0 0 -0.3' position="0 0.7 3" fieldOfView="0.5274"/>	
		<TimeSensor DEF="TimeSensor" cycleInterval="0.001" loop="TRUE" enabled="TRUE" startTime="0" />
		
		<!-- WorkingSpace representation & Instruction-->
		<Group>
			<Transform scale='0.1 .1 .1' translation='0 0 0'>
				<Shape>
					<Appearance>
						<Material diffuseColor='0.9 0.1 0.1'/>
					</Appearance> 
					<Text DEF='Instruction' string='"Hello"'>
						<FontStyle justify='"MIDDLE" "MIDDLE"' size='2'/>
					</Text>
				</Shape>
			</Transform>
			<Transform translation= "-1 0 0" >  
				<Shape>
					<Appearance>
						<Material diffuseColor=".1 0.1 0.9"/>
					</Appearance>
					<Box  size="0.001 2 2"/>
				</Shape>
			</Transform>
			<Transform translation= "1 0 0" >  
				<Shape>
					<Appearance>
						<Material diffuseColor=".1 0.1 0.9"/>
					</Appearance>
					<Box  size="0.001 2 2"/>
				</Shape>
			</Transform>
			<Transform translation= "0 1 0" >  
				<Shape>
					<Appearance>
						<Material diffuseColor=".1 0.1 0.9"/>
					</Appearance>
					<Box  size="2 0.001 2"/>
				</Shape>
			</Transform>
			<Transform translation= "0 -1  0" >  
				<Shape>
					<Appearance>
						<Material diffuseColor=".1 0.1 0.9"/>
					</Appearance>
					<Box  size="2 0.001 2"/>
				</Shape>
			</Transform>
		</Group>
		
		<!-- Target Sphere BLUE -->
		<Transform DEF="Target_left" translation="-0.2 0.5 0">
			<Shape>
				<Appearance>
					<Material diffuseColor="0 0 1"/>
				</Appearance>
				<Sphere radius="0.02"/>
			</Shape> 
		</Transform>
		
		<Transform DEF="Target_right" translation="0.2 0.5 0">
			<Shape>
				<Appearance>
					<Material diffuseColor="0 0 1"/>
				</Appearance>
				<Sphere radius="0.02"/>
			</Shape>
		</Transform>
		
		<!--Home Sphere GREEN -->
		<Transform DEF="Home_left" translation="-0.2 0.3 0">
			<Shape>
				<Appearance>
					<Material diffuseColor="0 1 0"/>
				</Appearance>
				<Sphere radius="0.02"/>
			</Shape>
		</Transform>
		
		<Transform DEF="Home_right" translation="0.2 0.3 0">
			<Shape>
				<Appearance>
					<Material diffuseColor="0 1 0"/>
				</Appearance>
				<Sphere radius="0.02"/>
			</Shape>
		</Transform>
		
		<!-- Hand Sphere RED for the left 
						and YELLOW for the right -->
        <!-- Sphere tools to exchange the velocity of the hand -->
        <Transform DEF="Velocity_left" center="0 0 0">  
			<Shape>
				<Appearance>
					<Material diffuseColor="0 0 0"/>
				</Appearance>
				<Sphere radius="0"/>
			</Shape>
		</Transform>
        <Transform DEF="Velocity_right" center="0 0 0">  
			<Shape>
				<Appearance>
					<Material diffuseColor="0 0 0"/>
				</Appearance>
				<Sphere radius="0"/>
			</Shape>
		</Transform>

		<Transform DEF="Hand_left" center="0 0 0">  
			<Shape>
				<Appearance>
					<Material diffuseColor="1 0 0"/>
				</Appearance>
				<Sphere radius="0.025"/>
			</Shape>
		</Transform>
		
		<Transform DEF="Hand_right" center="0 0 0">  
			<Shape>
				<Appearance>
					<Material diffuseColor="1 1 0"/>
				</Appearance>
				<Sphere radius="0.025"/>
			</Shape>
		</Transform>

		<Transform DEF="Tray" center="0 0 0">  
			<Shape>
				<Appearance>
					<Material diffuseColor="1 1 0"/>
				</Appearance>
				<Box size="1 0.02 0.2"/>
			</Shape>
		</Transform>
		<Transform DEF="sphere_velocity" center="0 0 0" translation="0 0 0">  
			<Shape>
				<Appearance>
					<Material diffuseColor="0 0 0"/>
				</Appearance>
				<Box size="0 0 0"/>
			</Shape>
		</Transform>
		<Transform DEF="sphere_balance" center ="0 0 0">  
			<Shape>
				<Appearance>
					<Material diffuseColor="1 1 1"/>
				</Appearance>
				<Sphere radius="0.05"/>
			</Shape>
		</Transform>
		
		<PythonScript DEF="Sphere_physic" url="Sphere_physic.py">		
			<sphere_velocity USE='sphere_velocity' containerField="references"/>
			<sphere_balance USE='sphere_balance' containerField="references"/>
			<Tray USE='Tray' containerField="references"/>
		</PythonScript>
		
		<PythonScript DEF="LeapPS" url="receiver.py">
			<Hand_left USE='Hand_left' containerField="references"/>
			<Velocity_left USE='Velocity_left' containerField="references"/>
			<Hand_right USE='Hand_right' containerField="references"/>
			<Velocity_right USE='Velocity_right' containerField="references"/>            
			<Tray USE='Tray' containerField="references"/>
			<TimeSensor USE='TimeSensor' containerField="references"/>
		</PythonScript>
		
		<PythonScript DEF="PS" url="protocol.py">
			<!--0-->	<Time USE="TimeSensor" containerField="references"/>		
			<!--1-->	<VP USE="VP" containerField="references"/>				<!-- ViewPoint for the representation -->
			<!--2-->	<Hand_left USE="Hand_left" containerField="references"/>
			<!--3-->	<Hand_right USE="Hand_right" containerField="references"/>
			<!--4-->	<Home_left USE="Home_left" containerField="references"/>		
			<!--5-->	<Home_right USE="Home_right" containerField="references"/>
			<!--6-->	<Target_left USE="Target_left" containerField="references"/>
   			<!--7-->	<Target_right USE="Target_right" containerField="references"/>
            <!--8-->	<Velocity_left USE="Velocity_left" containerField="references"/>
            <!--9-->	<Velocity_right USE="Velocity_right" containerField="references"/>
			<!--10-->	<Tray USE='Tray' containerField="references"/>
			<!--11-->	<Instruction USE='Instruction' containerField="references"/>
			<!--12-->	<sphere_balance USE='sphere_balance' containerField="references"/>
		</PythonScript>
		
		
		<!-- ROUTES It is determining the order of the actions -->

		
		<ROUTE fromNode="TimeSensor" fromField="cycleTime"
			toNode="Sphere_physic" toField="sphere_position"/>
			
		<ROUTE fromNode="Sphere_physic" fromField="sphere_position"
			toNode="sphere_balance" toField="translation"/>		
			
		<ROUTE fromNode="TimeSensor" fromField="cycleTime"
			toNode="PS" toField="state_detection"/>
		
		<ROUTE fromNode="PS" fromField="state_detection"
			toNode="PS" toField="protocol"/>
		
		<ROUTE fromNode="PS" fromField="protocol"
			toNode="PS" toField="home_position"/>
			
		<ROUTE fromNode="PS" fromField="home_position"
			toNode="Home_left" toField="translation"/>
		
		<ROUTE fromNode="PS" fromField="protocol"
			toNode="PS" toField="target_position"/>	
			
		<ROUTE fromNode="PS" fromField="target_position"
			toNode="Target_left" toField="translation"/>

		<ROUTE fromNode="PS" fromField="protocol"
			toNode="PS" toField="write_data"/>
			


	</Scene>
</X3D>
