-0.46194,0,-0.19134
0.46194,0,-0.19134
3.0616e-17,0.5,0
1.1716e-17,0.19134,-0.46194
0.35355,0,-0.35355
0.32664,0.32664,-0.19134
3.0616e-17,0,-0.5
-0.25,0.25,-0.35355
2.8286e-17,0.46194,-0.19134
-0.5,6.1232e-17,0
0.46194,-5.6571e-17,-0.19134
-0.25,-0.25,-0.35355
-0.35355,4.3298e-17,-0.35355
0.5,0,0
0.35355,0.35355,0
-0.35355,0.35355,0
-1.1716e-17,-0.19134,-0.46194
2.1649e-17,0.35355,-0.35355
-0.32664,0.32664,-0.19134
0.25,-0.25,-0.35355
-0.46194,5.6571e-17,-0.19134
0.25,0.25,-0.35355
